{
  "type": "service_account",
  "project_id": "democracy-vouchers",
  "private_key_id": "989dc96e77d4a96a345600f270c3b8b7007e2698",
  "private_key": "-----BEGIN PRIVATE KEY-----\nMIIEvAIBADANBgkqhkiG9w0BAQEFAASCBKYwggSiAgEAAoIBAQCWr9Fh8Hx9gipI\npKuLojT0P/O2mh9HiYqrzCWt3exc195YJqfb0xQ07N1vSw9MVLkpdUME+bkRkPdc\n/A7zRRPKo63sqCkeA3yVGxbZoi6UoVDMhIjG4yd4m6pzXWNlMHWzloO+Ep1A3qF3\nYOCn9gyYkefbKTWDpkkYYq4avnu0bTq2U+nmM7kFXnlV3vCGzF8aSpE8yvH6cO57\nP8Qjm2U4hPlHBrgS20quTjDL9D+twXLWtLKl8HI3Jo8AjO6LekyYX18Y0tcXfE5B\n/ECegoTnNlKy1a//dZI8ri9Bgw+pyevDsqCCWHvOtzv9FbvD7SAD+Odf6dQuxqun\nEq9qtOQLAgMBAAECggEAGLo4V2SR4TyzeKFBH1RacTxvX2cyO9iHv4JsKnhw+ZlY\n/Mk3IX0lYzv9aG5+T63Vhsad3VqncokB9qnMQEJ1KXsrptq/iJPU5VkBKmyRTUWd\njzougciz6PhOg8ju7yOBJRvNearvUD5Ya9EjfJyFW6IR1KaSCA0JEK3c2Tmp7iT/\n5JngAD3Y58ApGeSSGTjXkgorRIqSCJb4X8KkaQ6UjNybzyBpbo60ksnhka/ZRFRc\nmbs5zQ5DfyAq48ChGp+jt02yLlmkBpfJDE7QksGuefJmLZjLOFuG+ja3wBn5iv/8\n3LZjmE9WSCI0BY5r/m1ZBcRxxf1XR9/uexeEIPIyHQKBgQDUheOw7yDUoSq8Djf4\nK2Xz+O5ixwe3+Q2XblH7T8xBG5pKn9qQRH+jKlsgeoOmtlyW0381dBF1eka5u86v\nVttefE4/nTgfm5itGEjCqApwp4gDkTptFDlfPoInMm6uSddbIfdVU10wu8lf3EEN\nl9wGxKmPkOJ4NQxJkYmW+D563wKBgQC1g3vugOP+qy8c71jkrRKuVPAIW1H6Meye\nVoS7wRZoXEFfTwhvq8qW+MfQtlXCduKU9JXk+TdMfuWRyT9jD2vZvyZtjAJyEOIB\n7IQpH6fiROu1YaPPt0PhQZF/MLWT2gyiNMxv6IkLOG7ERT2GGgn+jGNWXsEnpjHe\n5lgdEOToVQKBgFMRQj4WOa7ij+GRbS8DR4Zk9kiFou612iomZMTmG+AW+efRM4zQ\nOVN9asD3Ih43iVkqsb4i7/ALKznNvquqN3RnAe67dQRlvPdrVoU/SVVfJjq+uSeJ\nkCM6O4U2oSxekF5+mD4xp2s0+zEM1iCKCuZaWCxVZS+3DGZ1DGKGBWXhAoGACnJy\n45tPhAzePVAZUbAUbyw8VH7NDRVqhQJ9yUCnxYHp0U5/Mc41btMKzRxxeyvUhrY9\nGlytrh1voSBwIYd1saaq04tHaMFIAMxYHvXPd9p3pozkHMRzh7d6ZFOtX8EhEQTw\n70/280pgNbO2gs1k3d2+qe3yOBH8tNOVJrceNbECgYBnpSApRCeUltrMWG8WkKDt\ntYg5Tuzl9F+KprRFbgp77EY/nAWVpYZS3xijLYGyGegbV6eEnV1V8EWuyxxuLrQx\nJLbaPH3JezxGxW7w/oGBd8KnHffiyXmMwJXWDeW74SVyrRLsYMa6pvjw1pBDeKb7\nCJLfvr5hdDT7cBbkVb5ZTA==\n-----END PRIVATE KEY-----\n",
  "client_email": "lambda-democracy-vouchers@democracy-vouchers.iam.gserviceaccount.com",
  "client_id": "107520600483992175182",
  "auth_uri": "https://accounts.google.com/o/oauth2/auth",
  "token_uri": "https://oauth2.googleapis.com/token",
  "auth_provider_x509_cert_url": "https://www.googleapis.com/oauth2/v1/certs",
  "client_x509_cert_url": "https://www.googleapis.com/robot/v1/metadata/x509/lambda-democracy-vouchers%40democracy-vouchers.iam.gserviceaccount.com"
}
